Library\Bee\artifacts\movedfrom\Unity.VisualScripting.Core.Editor.ref.dll_17134060296949054973.movedfrom
Library\Bee\artifacts\movedfrom\Unity.VisualScripting.Core.ref.dll_15518829177300997364.movedfrom
Library\Bee\artifacts\movedfrom\Unity.VisualScripting.Flow.ref.dll_2192924542065166755.movedfrom
Library\Bee\artifacts\movedfrom\UnityEditor.TestRunner.ref.dll_1819107689489022899.movedfrom
Library\Bee\artifacts\movedfrom\UnityEditor.UI.ref.dll_5519394401220875509.movedfrom
Library\Bee\artifacts\movedfrom\UnityEngine.TestRunner.ref.dll_16527383234446630302.movedfrom
Library\Bee\artifacts\movedfrom\UnityEngine.UI.ref.dll_648142665722821984.movedfrom
Library\Bee\artifacts\movedfrom\UnityEditor.Graphs.dll_15626477948817734775.movedfrom
Library\Bee\artifacts\movedfrom\UnityEditor.CoreModule.dll_10884666728345794373.movedfrom
Library\Bee\artifacts\movedfrom\UnityEditor.DeviceSimulatorModule.dll_17701247912153611404.movedfrom
Library\Bee\artifacts\movedfrom\UnityEditor.dll_16810255576275332928.movedfrom
Library\Bee\artifacts\movedfrom\UnityEditor.GraphViewModule.dll_12492270808380987505.movedfrom
Library\Bee\artifacts\movedfrom\UnityEditor.PackageManagerUIModule.dll_1579674879493935201.movedfrom
Library\Bee\artifacts\movedfrom\UnityEditor.QuickSearchModule.dll_13668158750022543411.movedfrom
Library\Bee\artifacts\movedfrom\UnityEditor.SceneTemplateModule.dll_13303149246932269844.movedfrom
Library\Bee\artifacts\movedfrom\UnityEditor.UIBuilderModule.dll_136835568385413541.movedfrom
Library\Bee\artifacts\movedfrom\UnityEditor.UIElementsModule.dll_9182603785366954593.movedfrom
Library\Bee\artifacts\movedfrom\UnityEditor.UIElementsSamplesModule.dll_18128026343865901084.movedfrom
Library\Bee\artifacts\movedfrom\UnityEditor.UIServiceModule.dll_4240196895390540223.movedfrom
Library\Bee\artifacts\movedfrom\UnityEditor.UnityConnectModule.dll_7340622534487033979.movedfrom
Library\Bee\artifacts\movedfrom\UnityEngine.AccessibilityModule.dll_16952590616277902001.movedfrom
Library\Bee\artifacts\movedfrom\UnityEngine.AIModule.dll_15540591730272145145.movedfrom
Library\Bee\artifacts\movedfrom\UnityEngine.AndroidJNIModule.dll_18282382826631582007.movedfrom
Library\Bee\artifacts\movedfrom\UnityEngine.AnimationModule.dll_8926963793291160855.movedfrom
Library\Bee\artifacts\movedfrom\UnityEngine.ARModule.dll_10456807319162056130.movedfrom
Library\Bee\artifacts\movedfrom\UnityEngine.AssetBundleModule.dll_114913158747151653.movedfrom
Library\Bee\artifacts\movedfrom\UnityEngine.AudioModule.dll_7653309333201383497.movedfrom
Library\Bee\artifacts\movedfrom\UnityEngine.ClothModule.dll_15068588352137809709.movedfrom
Library\Bee\artifacts\movedfrom\UnityEngine.ClusterInputModule.dll_16535975809703975745.movedfrom
Library\Bee\artifacts\movedfrom\UnityEngine.ClusterRendererModule.dll_18110163370799106576.movedfrom
Library\Bee\artifacts\movedfrom\UnityEngine.CoreModule.dll_13415922070887719536.movedfrom
Library\Bee\artifacts\movedfrom\UnityEngine.CrashReportingModule.dll_2453500695676869640.movedfrom
Library\Bee\artifacts\movedfrom\UnityEngine.DirectorModule.dll_11630795901833137293.movedfrom
Library\Bee\artifacts\movedfrom\UnityEngine.dll_2012630995754236965.movedfrom
Library\Bee\artifacts\movedfrom\UnityEngine.DSPGraphModule.dll_12013990450654748078.movedfrom
Library\Bee\artifacts\movedfrom\UnityEngine.GameCenterModule.dll_2883812754577474088.movedfrom
Library\Bee\artifacts\movedfrom\UnityEngine.GIModule.dll_8063570771725612819.movedfrom
Library\Bee\artifacts\movedfrom\UnityEngine.GridModule.dll_10925743661352908903.movedfrom
Library\Bee\artifacts\movedfrom\UnityEngine.HotReloadModule.dll_18242868554868705433.movedfrom
Library\Bee\artifacts\movedfrom\UnityEngine.ImageConversionModule.dll_7441696263074628100.movedfrom
Library\Bee\artifacts\movedfrom\UnityEngine.IMGUIModule.dll_11715449985873478698.movedfrom
Library\Bee\artifacts\movedfrom\UnityEngine.InputLegacyModule.dll_10582715885851906838.movedfrom
Library\Bee\artifacts\movedfrom\UnityEngine.InputModule.dll_15036336058056742125.movedfrom
Library\Bee\artifacts\movedfrom\UnityEngine.JSONSerializeModule.dll_5430000385451934523.movedfrom
Library\Bee\artifacts\movedfrom\UnityEngine.LocalizationModule.dll_2578417120653577786.movedfrom
Library\Bee\artifacts\movedfrom\UnityEngine.ParticleSystemModule.dll_8439428143018665878.movedfrom
Library\Bee\artifacts\movedfrom\UnityEngine.PerformanceReportingModule.dll_13626469634718557999.movedfrom
Library\Bee\artifacts\movedfrom\UnityEngine.Physics2DModule.dll_14450048128103064748.movedfrom
Library\Bee\artifacts\movedfrom\UnityEngine.PhysicsModule.dll_12968002151954509370.movedfrom
Library\Bee\artifacts\movedfrom\UnityEngine.ProfilerModule.dll_15253441758763078554.movedfrom
Library\Bee\artifacts\movedfrom\UnityEngine.RuntimeInitializeOnLoadManagerInitializerModule.dll_371581743382293877.movedfrom
Library\Bee\artifacts\movedfrom\UnityEngine.ScreenCaptureModule.dll_7296651743105183645.movedfrom
Library\Bee\artifacts\movedfrom\UnityEngine.SharedInternalsModule.dll_16958152837233655124.movedfrom
Library\Bee\artifacts\movedfrom\UnityEngine.SpriteMaskModule.dll_1238998954042218402.movedfrom
Library\Bee\artifacts\movedfrom\UnityEngine.SpriteShapeModule.dll_1943705950053897519.movedfrom
Library\Bee\artifacts\movedfrom\UnityEngine.StreamingModule.dll_3492505872149275733.movedfrom
Library\Bee\artifacts\movedfrom\UnityEngine.SubstanceModule.dll_946587012830290531.movedfrom
Library\Bee\artifacts\movedfrom\UnityEngine.SubsystemsModule.dll_8925911663292202933.movedfrom
Library\Bee\artifacts\movedfrom\UnityEngine.TerrainModule.dll_14861338561273018152.movedfrom
Library\Bee\artifacts\movedfrom\UnityEngine.TerrainPhysicsModule.dll_8473953714792751651.movedfrom
Library\Bee\artifacts\movedfrom\UnityEngine.TextCoreModule.dll_4189393471702023325.movedfrom
Library\Bee\artifacts\movedfrom\UnityEngine.TextRenderingModule.dll_10268871412542107538.movedfrom
Library\Bee\artifacts\movedfrom\UnityEngine.TilemapModule.dll_7870739843833862193.movedfrom
Library\Bee\artifacts\movedfrom\UnityEngine.TLSModule.dll_11389677633947377806.movedfrom
Library\Bee\artifacts\movedfrom\UnityEngine.UIElementsModule.dll_9231700587357698988.movedfrom
Library\Bee\artifacts\movedfrom\UnityEngine.UIElementsNativeModule.dll_6946193864429437059.movedfrom
Library\Bee\artifacts\movedfrom\UnityEngine.UIModule.dll_15212847300063106213.movedfrom
Library\Bee\artifacts\movedfrom\UnityEngine.UmbraModule.dll_16504197722338565052.movedfrom
Library\Bee\artifacts\movedfrom\UnityEngine.UNETModule.dll_5536390640195393513.movedfrom
Library\Bee\artifacts\movedfrom\UnityEngine.UnityAnalyticsModule.dll_10718092090970421650.movedfrom
Library\Bee\artifacts\movedfrom\UnityEngine.UnityConnectModule.dll_5998413570421541158.movedfrom
Library\Bee\artifacts\movedfrom\UnityEngine.UnityCurlModule.dll_12609959622279208708.movedfrom
Library\Bee\artifacts\movedfrom\UnityEngine.UnityTestProtocolModule.dll_13210858553227097458.movedfrom
Library\Bee\artifacts\movedfrom\UnityEngine.UnityWebRequestAssetBundleModule.dll_10330529688965560803.movedfrom
Library\Bee\artifacts\movedfrom\UnityEngine.UnityWebRequestAudioModule.dll_3825603160856506823.movedfrom
Library\Bee\artifacts\movedfrom\UnityEngine.UnityWebRequestModule.dll_8711438309926034563.movedfrom
Library\Bee\artifacts\movedfrom\UnityEngine.UnityWebRequestTextureModule.dll_817452956402538108.movedfrom
Library\Bee\artifacts\movedfrom\UnityEngine.UnityWebRequestWWWModule.dll_15175798455368952696.movedfrom
Library\Bee\artifacts\movedfrom\UnityEngine.VehiclesModule.dll_1813785990024600616.movedfrom
Library\Bee\artifacts\movedfrom\UnityEngine.VFXModule.dll_2228960643733686779.movedfrom
Library\Bee\artifacts\movedfrom\UnityEngine.VideoModule.dll_10322119181460868078.movedfrom
Library\Bee\artifacts\movedfrom\UnityEngine.VirtualTexturingModule.dll_9579872134709051662.movedfrom
Library\Bee\artifacts\movedfrom\UnityEngine.VRModule.dll_2733978037958744605.movedfrom
Library\Bee\artifacts\movedfrom\UnityEngine.WindModule.dll_3494170109118537945.movedfrom
Library\Bee\artifacts\movedfrom\UnityEngine.XRModule.dll_6390552409679751035.movedfrom
Library\Bee\artifacts\movedfrom\UnityEditor.OSXStandalone.Extensions.dll_3796638866382834646.movedfrom
Library\Bee\artifacts\movedfrom\UnityEditor.UWP.Extensions.dll_10289062957922105206.movedfrom
Library\Bee\artifacts\movedfrom\UnityEditor.WindowsStandalone.Extensions.dll_13612915151167294379.movedfrom